module gits-crud-echo

go 1.17

require (
	github.com/google/uuid v1.3.0
	github.com/joeshaw/envdecode v0.0.0-20200121155833-099f1fc765bd
	github.com/joho/godotenv v1.4.0
	github.com/labstack/echo/v4 v4.6.1
	github.com/pkg/errors v0.9.1
	gorm.io/driver/postgres v1.1.2
	gorm.io/gorm v1.21.16
)

require (
	github.com/jackc/chunkreader/v2 v2.0.1 // indirect
	github.com/jackc/pgconn v1.10.0 // indirect
	github.com/jackc/pgio v1.0.0 // indirect
	github.com/jackc/pgpassfile v1.0.0 // indirect
	github.com/jackc/pgproto3/v2 v2.1.1 // indirect
	github.com/jackc/pgservicefile v0.0.0-20200714003250-2b9c44734f2b // indirect
	github.com/jackc/pgtype v1.8.1 // indirect
	github.com/jackc/pgx/v4 v4.13.0 // indirect
	github.com/jinzhu/inflection v1.0.0 // indirect
	github.com/jinzhu/now v1.1.2 // indirect
	github.com/labstack/gommon v0.3.0 // indirect
	github.com/mattn/go-colorable v0.1.11 // indirect
	github.com/mattn/go-isatty v0.0.14 // indirect
	github.com/valyala/bytebufferpool v1.0.0 // indirect
	github.com/valyala/fasttemplate v1.2.1 // indirect
	golang.org/x/crypto v0.0.0-20210921155107-089bfa567519 // indirect
	golang.org/x/net v0.0.0-20210913180222-943fd674d43e // indirect
	golang.org/x/sys v0.0.0-20210927094055-39ccf1dd6fa6 // indirect
	golang.org/x/text v0.3.7 // indirect
)
